{"_id":{"$oid":"5cd81fcc43489de1cd659648"},"code":{"$numberDouble":"1.1"},"complexity":{"$numberInt":"1"}}
{"_id":{"$oid":"5cd81fcc43489de1cd659649"},"code":{"$numberDouble":"1.1"},"complexity":{"$numberInt":"2"}}
{"_id":{"$oid":"5cd81fcc43489de1cd65964a"},"code":{"$numberDouble":"1.1"},"complexity":{"$numberInt":"3"}}
{"_id":{"$oid":"5cd81fcc43489de1cd65964b"},"code":{"$numberDouble":"1.1"},"complexity":{"$numberInt":"4"}}
{"_id":{"$oid":"5cd81fcc43489de1cd65964c"},"code":{"$numberDouble":"1.2"},"complexity":{"$numberInt":"1"}}
{"_id":{"$oid":"5cd81fcc43489de1cd65964d"},"code":{"$numberDouble":"1.2"},"complexity":{"$numberInt":"2"}}
{"_id":{"$oid":"5cd81fcc43489de1cd65964e"},"code":{"$numberDouble":"1.2"},"complexity":{"$numberInt":"3"}}
{"_id":{"$oid":"5cd81fcc43489de1cd65964f"},"code":{"$numberDouble":"1.2"},"complexity":{"$numberInt":"4"}}
{"_id":{"$oid":"5cd81fcc43489de1cd659650"},"code":{"$numberDouble":"1.3"},"complexity":{"$numberInt":"1"}}
{"_id":{"$oid":"5cd81fcc43489de1cd659651"},"code":{"$numberDouble":"1.3"},"complexity":{"$numberInt":"2"}}
{"_id":{"$oid":"5cd81fcc43489de1cd659652"},"code":{"$numberDouble":"1.3"},"complexity":{"$numberInt":"3"}}
{"_id":{"$oid":"5cd81fcc43489de1cd659653"},"code":{"$numberDouble":"1.3"},"complexity":{"$numberInt":"4"}}
{"_id":{"$oid":"5cd81fcc43489de1cd659654"},"code":{"$numberDouble":"1.4"},"complexity":{"$numberInt":"1"}}
{"_id":{"$oid":"5cd81fcc43489de1cd659655"},"code":{"$numberDouble":"1.4"},"complexity":{"$numberInt":"2"}}
{"_id":{"$oid":"5cd81fcc43489de1cd659656"},"code":{"$numberDouble":"1.4"},"complexity":{"$numberInt":"3"}}
{"_id":{"$oid":"5cd81fcc43489de1cd659657"},"code":{"$numberDouble":"1.4"},"complexity":{"$numberInt":"4"}}
